Lamball,1470,Yes,27
Cattiva,1460,Yes,46
Chikipi,1500,Yes,62
Lifmunk,1430,Yes,7
Foxparks,1400,Yes,20
Fuack,1330,Yes,59
Sparkit,1410,Yes,65
Tanzee,1250,Yes,107
Rooby,1155,Yes,137
Pengullet,1350,Yes,23
Penking,520,Yes,121
Jolthog,1370,Yes,17
Jolthog Cryst,1360,No,18
Gumoss,1240,Yes,112
Vixy,1450,Yes,79
Hoocrates,1390,Yes,82
Teafant,1490,Yes,14
Depresso,1380,Yes,47
Cremis,1455,Yes,134
Daedream,1230,Yes,106
Rushoar,1130,Yes,6
Nox,1180,Yes,120
Fuddler,1220,Yes,101
Killamari,1290,Yes,85
Mau,1480,Yes,4
Mau Cryst,1440,No,5
Celaray,870,Yes,127
Direhowl,1060,Yes,15
Tocotoco,1340,Yes,8
Flopie,1280,Yes,91
Mozzarina,910,Yes,86
Bristla,1320,Yes,21
Gobfin,1090,Yes,25
Gobfin Ignis,1100,No,26
Hangyu,1420,Yes,31
Hangyu Cryst,1422,No,32
Mossanda,430,Yes,97
Mossanda Lux,390,No,98
Woolipop,1190,Yes,39
Caprity,930,Yes,75
Melpaca,890,Yes,41
Eikthyrdeer,920,Yes,9
Eikthyrdeer Terra,900,No,10
Nitewing,420,Yes,90
Ribbuny,1310,Yes,116
Incineram,590,Yes,2
Incineram Noct,580,No,3
Cinnamoth,490,Yes,131
Arsox,790,Yes,99
Dumud,895,Yes,135
Cawgnito,1080,Yes,44
Leezpunk,1120,Yes,57
Leezpunk Ignis,1140,No,58
Loupmoon,950,Yes,30
Galeclaw,1030,Yes,12
Robinquill,1020,Yes,52
Robinquill Terra,1000,No,53
Gorirat,1040,Yes,16
Beegarde,1070,Yes,95
Elizabee,330,Yes,94
Grintale,510,Yes,130
Swee,1300,Yes,113
Sweepa,410,Yes,114
Chillet,800,Yes,122
Univolt,680,Yes,19
Foxcicle,760,Yes,104
Pyrin,360,Yes,35
Pyrin Noct,240,No,36
Reindrix,880,Yes,76
Rayhound,740,Yes,100
Kitsun,830,Yes,56
Dazzi,1210,Yes,24
Lunaris,1110,Yes,22
Dinossom,820,Yes,63
Dinossom Lux,810,No,64
Surfent,560,Yes,42
Surfent Terra,550,No,43
Maraith,1150,Yes,51
Digtoise,850,Yes,11
Tombat,750,Yes,96
Lovander,940,Yes,81
Flambelle,1405,Yes,136
Vanwyrm,660,Yes,60
Vanwyrm Cryst,620,No,61
Bushi,640,Yes,126
Beakon,220,Yes,117
Ragnahawk,380,Yes,125
Katress,700,Yes,115
Wixen,1160,Yes,80
Verdash,990,Yes,103
Vaelet,1050,Yes,89
Sibelyx,450,Yes,78
Elphidran,540,Yes,37
Elphidran Aqua,530,No,38
Kelpsea,1260,Yes,83
Kelpsea Ignis,1270,Yes,84
Azurobe,500,Yes,45
Cryolinx,130,Yes,40
Blazehowl,710,Yes,108
Blazehowl Noct,670,No,109
Relaxaurus,280,Yes,54
Relaxaurus Lux,270,No,55
Broncherry,860,Yes,71
Broncherry Aqua,840,No,72
Petallia,780,Yes,129
Reptyro,320,Yes,49
Reptyro Cryst,230,No,50
Kingpaca,470,Yes,110
Kingpaca Cryst,440,No,111
Mammorest,300,Yes,68
Mammorest Cryst,290,No,69
Wumpo,460,Yes,87
Wumpo Botan,480,Yes,88
Warsect,340,Yes,118
Fenglope,980,Yes,48
Felbat,1010,Yes,70
Quivern,350,Yes,123
Blazamut,10,Yes,74
Helzephyr,190,Yes,124
Astegon,150,Yes,102
Menasting,260,Yes,132
Anubis,570,Yes,1
Jormuntide,310,Yes,28
Jormuntide Ignis,315,No,29
Suzaku,50,Yes,33
Suzaku Aqua,30,No,34
Grizzbolt,200,No,13
Lyleen,250,No,92
Lyleen Noct,210,No,93
Faleris,370,No,73
Orserk,140,No,133
Shadowbeak,60,No,77
Paladius,80,No,119
Necromus,70,No,128
Frostallion,120,No,66
Frostallion Noct,100,No,67
Jetragon,90,No,105